{
  "title": "More Human Than Human (Album Version (Explicit))",
  "artist": "White Zombie",
  "album": "Let Sleeping Corpses Lie [Explicit]",
  "genre": "Rock",
  "composer": "Jay Noel Yuenger",
  "track": "10/16",
  "disc": "4/4",
  "album_artist": "White Zombie",
  "comment": "Amazon.com Song ID: 208373887",
  "copyright": "(C) 2008 Universal Music Enterprises, a Division of UMG Recordings, Inc.",
  "date": "2008",
  "file": "./(Disc 4) 10 - More Human Than Human (Explicit).mp3",
  "coverart": "1d28c8b3-3898-4823-b730-37e68ca808ba.png"
}
