{
  "title": "Come As You Are (Album Version)",
  "artist": "Nirvana",
  "album": "Nirvana",
  "genre": "Rock",
  "composer": "Kurt Cobain",
  "track": "6/14",
  "disc": "1/1",
  "album_artist": "Nirvana",
  "comment": "Amazon.com Song ID: 202376282",
  "copyright": "(C) 2002 Geffen Records Inc.",
  "date": "2002",
  "file": "./06 - Come As You Are (Album Version).mp3",
  "coverart": "1e8032bd-499d-4298-8ad2-d4d063a1fa61.png"
}
