{
  "title": "Busy Child (Album Version)",
  "artist": "The Crystal Method",
  "album": "Vegas",
  "genre": "Dance & DJ",
  "composer": "Eric B.",
  "track": "2/10",
  "disc": "1/2",
  "comment": "Amazon.com Song ID: 208867624",
  "album_artist": "The Crystal Method",
  "copyright": "(C) 2007 Geffen Records",
  "date": "2007",
  "file": "./02 - Busy Child.mp3",
  "coverart": "6884d167-6175-4b63-90ef-2c6a465fe186.png"
}
