{
  "title": "Big Me",
  "artist": "Foo Fighters",
  "album": "Greatest Hits [Explicit]",
  "genre": "Alternative Rock",
  "composer": "David Grohl",
  "track": "9/17",
  "disc": "1/1",
  "album_artist": "Foo Fighters",
  "comment": "Amazon.com Song ID: 226446874",
  "date": "2009",
  "file": "./tmp/Foo Fighters/Greatest Hits [Explicit]/09 - Big Me.mp3",
  "coverart": "7438520a-765e-413e-a0b7-68de6de74fb5.png"
}
